MA 206 Tidyverse Tutorials
…
### normal ggplot (fast), flipbooked
.panel1-fast_ggplot-auto[

```r
library(gapminder)
*gapminder
```
]
 
.panel2-fast_ggplot-auto[

```
# A tibble: 1,704 x 6
   country     continent  year lifeExp      pop gdpPercap
   <fct>       <fct>     <int>   <dbl>    <int>     <dbl>
 1 Afghanistan Asia       1952    28.8  8425333      779.
 2 Afghanistan Asia       1957    30.3  9240934      821.
 3 Afghanistan Asia       1962    32.0 10267083      853.
 4 Afghanistan Asia       1967    34.0 11537966      836.
 5 Afghanistan Asia       1972    36.1 13079460      740.
 6 Afghanistan Asia       1977    38.4 14880372      786.
 7 Afghanistan Asia       1982    39.9 12881816      978.
 8 Afghanistan Asia       1987    40.8 13867957      852.
 9 Afghanistan Asia       1992    41.7 16317921      649.
10 Afghanistan Asia       1997    41.8 22227415      635.
# … with 1,694 more rows
```
…
### normal ggplot (fast), flipbooked
.panel1-fast_ggplot-auto[

```r
library(gapminder)
gapminder %>%
* filter(year == 2002)
```
]
 
.panel2-fast_ggplot-auto[

```
# A tibble: 142 x 6
   country     continent  year lifeExp       pop gdpPercap
   <fct>       <fct>     <int>   <dbl>     <int>     <dbl>
 1 Afghanistan Asia       2002    42.1  25268405      727.
 2 Albania     Europe     2002    75.7   3508512     4604.
 3 Algeria     Africa     2002    71.0  31287142     5288.
 4 Angola      Africa     2002    41.0  10866106     2773.
 5 Argentina   Americas   2002    74.3  38331121     8798.
 6 Australia   Oceania    2002    80.4  19546792    30688.
 7 Austria     Europe     2002    79.0   8148312    32418.
 8 Bahrain     Asia       2002    74.8    656397    23404.
 9 Bangladesh  Asia       2002    62.0 135656790     1136.
10 Belgium     Europe     2002    78.3  10311970    30486.
# … with 132 more rows
```
…
### normal ggplot (fast), flipbooked
.panel1-fast_ggplot-auto[

```r
library(gapminder)
gapminder %>%
  filter(year == 2002) %>%
* mutate(pop_millions = pop/1000000)
```
]
 
.panel2-fast_ggplot-auto[

```
# A tibble: 142 x 7
   country     continent  year lifeExp       pop gdpPercap pop_millions
   <fct>       <fct>     <int>   <dbl>     <int>     <dbl>        <dbl>
 1 Afghanistan Asia       2002    42.1  25268405      727.       25.3  
 2 Albania     Europe     2002    75.7   3508512     4604.        3.51 
 3 Algeria     Africa     2002    71.0  31287142     5288.       31.3  
 4 Angola      Africa     2002    41.0  10866106     2773.       10.9  
 5 Argentina   Americas   2002    74.3  38331121     8798.       38.3  
 6 Australia   Oceania    2002    80.4  19546792    30688.       19.5  
 7 Austria     Europe     2002    79.0   8148312    32418.        8.15 
 8 Bahrain     Asia       2002    74.8    656397    23404.        0.656
 9 Bangladesh  Asia       2002    62.0 135656790     1136.      136.   
10 Belgium     Europe     2002    78.3  10311970    30486.       10.3  
# … with 132 more rows
```
…
 Slow ggplot, flipbooked
.panel1-slow-auto[

```r
library(gapminder)
*gapminder
```
]
 
.panel2-slow-auto[

```
# A tibble: 1,704 x 6
   country     continent  year lifeExp      pop gdpPercap
   <fct>       <fct>     <int>   <dbl>    <int>     <dbl>
 1 Afghanistan Asia       1952    28.8  8425333      779.
 2 Afghanistan Asia       1957    30.3  9240934      821.
 3 Afghanistan Asia       1962    32.0 10267083      853.
 4 Afghanistan Asia       1967    34.0 11537966      836.
 5 Afghanistan Asia       1972    36.1 13079460      740.
 6 Afghanistan Asia       1977    38.4 14880372      786.
 7 Afghanistan Asia       1982    39.9 12881816      978.
 8 Afghanistan Asia       1987    40.8 13867957      852.
 9 Afghanistan Asia       1992    41.7 16317921      649.
10 Afghanistan Asia       1997    41.8 22227415      635.
# … with 1,694 more rows
```
…
 Slow ggplot, flipbooked
.panel1-slow-auto[

```r
library(gapminder)
gapminder %>%
* filter(year == 2002)
```
]
 
.panel2-slow-auto[

```
# A tibble: 142 x 6
   country     continent  year lifeExp       pop gdpPercap
   <fct>       <fct>     <int>   <dbl>     <int>     <dbl>
 1 Afghanistan Asia       2002    42.1  25268405      727.
 2 Albania     Europe     2002    75.7   3508512     4604.
 3 Algeria     Africa     2002    71.0  31287142     5288.
 4 Angola      Africa     2002    41.0  10866106     2773.
 5 Argentina   Americas   2002    74.3  38331121     8798.
 6 Australia   Oceania    2002    80.4  19546792    30688.
 7 Austria     Europe     2002    79.0   8148312    32418.
 8 Bahrain     Asia       2002    74.8    656397    23404.
 9 Bangladesh  Asia       2002    62.0 135656790     1136.
10 Belgium     Europe     2002    78.3  10311970    30486.
# … with 132 more rows
```
…
